[
  {
    "line": 2,
    "elements": [
      {
        "start_timestamp": "2020-06-29T11:45:07.903Z",
        "line": 5,
        "name": "add to basket",
        "description": "",
        "id": "basket;add-to-basket",
        "type": "scenario",
        "keyword": "Scenario",
        "steps": [
          {
            "result": {
              "error_message": "org.openqa.selenium.WebDriverException: unknown error: failed to change window state to maximized, current state is normal\n  (Session info: chrome\u003d83.0.4103.116)\n  (Driver info: chromedriver\u003d2.41.578700 (2f1ed5f9343c13f73144538f15c00b370eda6706),platform\u003dLinux 4.15.0-106-generic x86_64) (WARNING: The server did not provide any stacktrace information)\nCommand duration or timeout: 0 milliseconds\nBuild info: version: \u00273.141.59\u0027, revision: \u0027e82be7d358\u0027, time: \u00272018-11-14T08:17:03\u0027\nSystem info: host: \u0027balaji-Aspire-E5-571\u0027, ip: \u0027127.0.1.1\u0027, os.name: \u0027Linux\u0027, os.arch: \u0027amd64\u0027, os.version: \u00274.15.0-106-generic\u0027, java.version: \u00271.8.0_252\u0027\nDriver info: org.openqa.selenium.chrome.ChromeDriver\nCapabilities {acceptInsecureCerts: false, acceptSslCerts: false, applicationCacheEnabled: false, browserConnectionEnabled: false, browserName: chrome, chrome: {chromedriverVersion: 2.41.578700 (2f1ed5f9343c13..., userDataDir: /tmp/.org.chromium.Chromium...}, cssSelectorsEnabled: true, databaseEnabled: false, goog:chromeOptions: {debuggerAddress: localhost:37717}, handlesAlerts: true, hasTouchScreen: false, javascriptEnabled: true, locationContextEnabled: true, mobileEmulationEnabled: false, nativeEvents: true, networkConnectionEnabled: false, pageLoadStrategy: normal, platform: LINUX, platformName: LINUX, rotatable: false, setWindowRect: true, takesHeapSnapshot: true, takesScreenshot: true, unexpectedAlertBehaviour: , unhandledPromptBehavior: , version: 83.0.4103.116, webStorageEnabled: true}\nSession ID: 9ae8bb4dbb662d7ba16c931373e0df0d\n\tat sun.reflect.NativeConstructorAccessorImpl.newInstance0(Native Method)\n\tat sun.reflect.NativeConstructorAccessorImpl.newInstance(NativeConstructorAccessorImpl.java:62)\n\tat sun.reflect.DelegatingConstructorAccessorImpl.newInstance(DelegatingConstructorAccessorImpl.java:45)\n\tat java.lang.reflect.Constructor.newInstance(Constructor.java:423)\n\tat org.openqa.selenium.remote.ErrorHandler.createThrowable(ErrorHandler.java:214)\n\tat org.openqa.selenium.remote.ErrorHandler.throwIfResponseFailed(ErrorHandler.java:166)\n\tat org.openqa.selenium.remote.http.JsonHttpResponseCodec.reconstructValue(JsonHttpResponseCodec.java:40)\n\tat org.openqa.selenium.remote.http.AbstractHttpResponseCodec.decode(AbstractHttpResponseCodec.java:80)\n\tat org.openqa.selenium.remote.http.AbstractHttpResponseCodec.decode(AbstractHttpResponseCodec.java:44)\n\tat org.openqa.selenium.remote.HttpCommandExecutor.execute(HttpCommandExecutor.java:158)\n\tat org.openqa.selenium.remote.service.DriverCommandExecutor.execute(DriverCommandExecutor.java:83)\n\tat org.openqa.selenium.remote.RemoteWebDriver.execute(RemoteWebDriver.java:552)\n\tat org.openqa.selenium.remote.RemoteWebDriver.execute(RemoteWebDriver.java:609)\n\tat org.openqa.selenium.remote.RemoteWebDriver$RemoteWebDriverOptions$RemoteWindow.maximize(RemoteWebDriver.java:837)\n\tat org.bindings.Basket.that_i_am_on_the_shopping_website(Basket.java:23)\n\tat ✽.that i am on the shopping website(file:src/test/resources/busket.feature:6)\n",
              "duration": 45803918458,
              "status": "failed"
            },
            "line": 6,
            "name": "that i am on the shopping website",
            "match": {
              "location": "Basket.that_i_am_on_the_shopping_website()"
            },
            "keyword": "Given "
          },
          {
            "result": {
              "duration": 1108106,
              "status": "skipped"
            },
            "line": 7,
            "name": "i add an item to the basket",
            "match": {
              "location": "Basket.i_add_an_item_to_the_basket()"
            },
            "keyword": "When "
          },
          {
            "result": {
              "duration": 4599346,
              "status": "skipped"
            },
            "line": 8,
            "name": "i can view the item in my basket",
            "match": {
              "location": "Basket.i_can_view_the_item_in_my_basket()"
            },
            "keyword": "Then "
          }
        ],
        "tags": [
          {
            "name": "@run"
          }
        ]
      }
    ],
    "name": "basket",
    "description": "",
    "id": "basket",
    "keyword": "Feature",
    "uri": "file:src/test/resources/busket.feature",
    "tags": [
      {
        "name": "@run",
        "type": "Tag",
        "location": {
          "line": 1,
          "column": 1
        }
      }
    ]
  }
]